…
``` r
dp <- dat %>% 
  group_by(shot_distance) %>%
  summarise(made_shot_prop = sum(shot_made_flag == "made shot") / n() ) %>%
  arrange(shot_distance)
dp
```

    ## # A tibble: 56 x 2
    ##    shot_distance made_shot_prop
    ##            <int>          <dbl>
    ##  1             0      0.8410758
    ##  2             1      0.6683673
    ##  3             2      0.5335689
    ##  4             3      0.3734940
    ##  5             4      0.4107143
    ##  6             5      0.2857143
    ##  7             6      0.3958333
    ##  8             7      0.3953488
    ##  9             8      0.4634146
    ## 10             9      0.3207547
    ## # ... with 46 more rows
…
